<?xml version="1.0" encoding="UTF-8"?>
<!DOCTYPE svg  PUBLIC '-//W3C//DTD SVG 1.1//EN'  'http://www.w3.org/Graphics/SVG/1.1/DTD/svg11.dtd'>
<svg width="15.198mm" height="18.662mm" clip-rule="evenodd" fill-rule="evenodd" image-rendering="optimizeQuality" shape-rendering="geometricPrecision" text-rendering="geometricPrecision" version="1.1" viewBox="0 0 107.47 131.96" xml:space="preserve" xmlns="http://www.w3.org/2000/svg">
 <defs>
  <style type="text/css">
   <![CDATA[
    .str1 {stroke:#679ACF;stroke-width:3.51;stroke-miterlimit:22.9256}
    .str0 {stroke:#679ACF;stroke-width:3.51;stroke-miterlimit:22.9256}
    .str2 {stroke:#679ACF;stroke-width:3.51;stroke-miterlimit:22.9256}
    .str3 {stroke:#679ACF;stroke-width:3.51;stroke-miterlimit:22.9256}
    .fil2 {fill:none}
    .fil4 {fill:#679ACF}
    .fil0 {fill:#E8EFF8}
    .fil3 {fill:white}
    .fil1 {fill:#679ACF;fill-rule:nonzero}
   ]]>
  </style>
    <clipPath id="a">
     <path d="m49.01 36.25c13.15 0 24.1 9.4 26.5 21.85h-8.33c-2.29 0-4.16 1.87-4.16 4.16v5.76c0 2.29 1.87 4.16 4.16 4.16h7.3c-3.69 10.51-13.7 18.04-25.47 18.04-14.91 0-26.99-12.08-26.99-26.99s12.08-26.99 26.99-26.99z"/>
    </clipPath>
 </defs>
    <path class="fil0" d="m14.95 1.76h87c2.07 0 3.77 1.7 3.77 3.77v120.92c0 2.07-1.7 3.77-3.77 3.77h-87c-2.07 0-3.77-1.7-3.77-3.77v-120.92c0-2.07 1.7-3.77 3.77-3.77z"/>
    <path class="fil1" d="m101.94 3.51h-87v-3.51h87v3.51zm5.52 2.01h-3.51v-0.1l-0.01-0.1-0.01-0.1-0.02-0.1-0.02-0.1-0.03-0.09-0.03-0.09-0.03-0.09-0.04-0.09-0.05-0.09-0.05-0.08-0.05-0.08-0.06-0.08-0.06-0.08-0.07-0.08-0.07-0.07-0.07-0.07-0.08-0.07-0.08-0.06-0.08-0.06-0.08-0.05-0.08-0.05-0.09-0.05-0.09-0.04-0.09-0.03-0.09-0.03-0.09-0.03-0.1-0.02-0.1-0.02-0.1-0.01-0.1-0.01h-0.1v-3.51l0.28 0.01 0.28 0.02 0.28 0.04 0.27 0.05 0.27 0.06 0.26 0.07 0.25 0.09 0.25 0.1 0.25 0.11 0.23 0.12 0.23 0.13 0.22 0.14 0.22 0.15 0.21 0.16 0.2 0.17 0.19 0.18 0.18 0.19 0.17 0.2 0.16 0.21 0.15 0.22 0.14 0.22 0.13 0.23 0.12 0.23 0.11 0.25 0.1 0.25 0.09 0.25 0.07 0.26 0.06 0.27 0.05 0.27 0.04 0.28 0.02 0.28 0.01 0.28zm-3.51 120.92v-120.92h3.51v120.92h-3.51zm-2.01 5.52v-3.51h0.1l0.1-0.01 0.1-0.01 0.1-0.02 0.1-0.02 0.09-0.03 0.09-0.03 0.09-0.03 0.09-0.04 0.09-0.05 0.08-0.05 0.08-0.05 0.08-0.06 0.08-0.06 0.08-0.07 0.07-0.07 0.07-0.07 0.07-0.08 0.06-0.08 0.06-0.08 0.05-0.08 0.05-0.08 0.05-0.09 0.04-0.09 0.03-0.09 0.03-0.09 0.03-0.09 0.02-0.1 0.02-0.1 0.01-0.1 0.01-0.1v-0.1h3.51l-0.01 0.28-0.02 0.28-0.04 0.28-0.05 0.27-0.06 0.27-0.07 0.26-0.09 0.25-0.1 0.25-0.11 0.25-0.12 0.23-0.13 0.23-0.14 0.22-0.15 0.22-0.16 0.21-0.17 0.2-0.18 0.19-0.19 0.18-0.2 0.17-0.21 0.16-0.22 0.15-0.22 0.14-0.23 0.13-0.23 0.12-0.25 0.11-0.25 0.1-0.25 0.09-0.26 0.07-0.27 0.06-0.27 0.05-0.28 0.04-0.28 0.02-0.28 0.01zm-87-3.51h87v3.51h-87v-3.51zm-5.52-2.01h3.51v0.1l0.01 0.1 0.01 0.1 0.02 0.1 0.02 0.1 0.03 0.09 0.03 0.09 0.03 0.09 0.04 0.09 0.05 0.09 0.05 0.08 0.05 0.08 0.06 0.08 0.06 0.08 0.07 0.08 0.07 0.07 0.07 0.07 0.08 0.07 0.08 0.06 0.08 0.06 0.08 0.05 0.08 0.05 0.09 0.05 0.09 0.04 0.09 0.03 0.09 0.03 0.09 0.03 0.1 0.02 0.1 0.02 0.1 0.01 0.1 0.01h0.1v3.51l-0.28-0.01-0.28-0.02-0.28-0.04-0.27-0.05-0.27-0.06-0.26-0.07-0.25-0.09-0.25-0.1-0.25-0.11-0.23-0.12-0.23-0.13-0.22-0.14-0.22-0.15-0.21-0.16-0.2-0.17-0.19-0.18-0.18-0.19-0.17-0.2-0.16-0.21-0.15-0.22-0.14-0.22-0.13-0.23-0.12-0.23-0.11-0.25-0.1-0.25-0.09-0.25-0.07-0.26-0.06-0.27-0.05-0.27-0.04-0.28-0.02-0.28-0.01-0.28zm3.51-120.92v120.92h-3.51v-120.92h3.51zm2.01-5.52v3.51h-0.1l-0.1 0.01-0.1 0.01-0.1 0.02-0.1 0.02-0.09 0.03-0.09 0.03-0.09 0.03-0.09 0.04-0.09 0.05-0.08 0.05-0.08 0.05-0.08 0.06-0.08 0.06-0.08 0.07-0.07 0.07-0.07 0.07-0.07 0.08-0.06 0.08-0.06 0.08-0.05 0.08-0.05 0.08-0.05 0.09-0.04 0.09-0.03 0.09-0.03 0.09-0.03 0.09-0.02 0.1-0.02 0.1-0.01 0.1-0.01 0.1v0.1h-3.51l0.01-0.28 0.02-0.28 0.04-0.28 0.05-0.27 0.06-0.27 0.07-0.26 0.09-0.25 0.1-0.25 0.11-0.25 0.12-0.23 0.13-0.23 0.14-0.22 0.15-0.22 0.16-0.21 0.17-0.2 0.18-0.19 0.19-0.18 0.2-0.17 0.21-0.16 0.22-0.15 0.22-0.14 0.23-0.13 0.23-0.12 0.25-0.11 0.25-0.1 0.25-0.09 0.26-0.07 0.27-0.06 0.27-0.05 0.28-0.04 0.28-0.02 0.28-0.01z"/>
    <path class="fil0" d="m5.52 1.76h87c2.07 0 3.77 1.7 3.77 3.77v120.92c0 2.07-1.7 3.77-3.77 3.77h-87c-2.07 0-3.77-1.7-3.77-3.77v-120.92c0-2.07 1.7-3.77 3.77-3.77z"/>
    <path class="fil1" d="m92.52 3.51h-87v-3.51h87v3.51zm5.52 2.01h-3.51v-0.1l-0.01-0.1-0.01-0.1-0.02-0.1-0.02-0.09-0.03-0.09-0.03-0.1-0.04-0.09-0.04-0.09-0.04-0.09-0.05-0.08-0.05-0.08-0.06-0.08-0.06-0.08-0.06-0.07-0.07-0.07-0.07-0.07-0.08-0.07-0.08-0.06-0.08-0.05-0.08-0.05-0.08-0.05-0.09-0.05-0.09-0.04-0.09-0.03-0.09-0.03-0.1-0.03-0.1-0.02-0.1-0.02-0.1-0.01-0.1-0.01h-0.1v-3.51l0.28 0.01 0.28 0.02 0.28 0.04 0.27 0.05 0.27 0.06 0.26 0.07 0.26 0.09 0.26 0.1 0.25 0.11 0.23 0.12 0.23 0.13 0.23 0.14 0.22 0.16 0.21 0.16 0.2 0.17 0.19 0.18 0.18 0.19 0.17 0.2 0.16 0.21 0.15 0.21 0.14 0.22 0.13 0.23 0.12 0.24 0.11 0.25 0.1 0.25 0.09 0.25 0.08 0.27 0.06 0.27 0.05 0.27 0.04 0.28 0.02 0.28 0.01 0.28zm-3.51 120.92v-120.92h3.51v120.92h-3.51zm-2.01 5.52v-3.51h0.1l0.1-0.01 0.1-0.01 0.1-0.02 0.1-0.02 0.1-0.03 0.09-0.03 0.09-0.03 0.09-0.04 0.09-0.05 0.08-0.05 0.08-0.05 0.08-0.05 0.08-0.06 0.08-0.07 0.07-0.07 0.07-0.07 0.06-0.07 0.06-0.08 0.06-0.08 0.05-0.08 0.05-0.08 0.04-0.09 0.04-0.09 0.04-0.09 0.03-0.1 0.03-0.09 0.02-0.09 0.02-0.1 0.01-0.1 0.01-0.1v-0.1h3.51l-0.01 0.28-0.02 0.28-0.04 0.28-0.05 0.27-0.06 0.27-0.08 0.27-0.09 0.25-0.1 0.25-0.11 0.25-0.12 0.24-0.13 0.23-0.14 0.22-0.15 0.21-0.16 0.21-0.17 0.2-0.18 0.19-0.19 0.18-0.2 0.17-0.21 0.16-0.22 0.16-0.23 0.14-0.23 0.13-0.23 0.12-0.25 0.11-0.26 0.1-0.26 0.09-0.26 0.07-0.27 0.06-0.27 0.05-0.28 0.04-0.28 0.02-0.28 0.01zm-87-3.51h87v3.51h-87v-3.51zm-5.52-2.01h3.51v0.1l0.01 0.1 0.01 0.1 0.02 0.1 0.02 0.1 0.03 0.09 0.03 0.09 0.03 0.09 0.04 0.09 0.05 0.09 0.05 0.08 0.05 0.08 0.06 0.08 0.06 0.08 0.07 0.08 0.07 0.07 0.07 0.07 0.08 0.07 0.08 0.06 0.08 0.06 0.08 0.05 0.09 0.05 0.09 0.05 0.09 0.04 0.09 0.03 0.09 0.03 0.1 0.03 0.1 0.02 0.1 0.02 0.1 0.01 0.1 0.01h0.1v3.51l-0.28-0.01-0.28-0.02-0.28-0.04-0.27-0.05-0.27-0.06-0.26-0.07-0.26-0.09-0.25-0.1-0.25-0.11-0.23-0.12-0.23-0.13-0.23-0.15-0.22-0.15-0.21-0.16-0.2-0.17-0.19-0.18-0.18-0.19-0.17-0.2-0.16-0.21-0.15-0.22-0.14-0.22-0.13-0.23-0.12-0.23-0.11-0.25-0.1-0.25-0.09-0.25-0.07-0.26-0.06-0.27-0.05-0.27-0.04-0.28-0.02-0.28-0.01-0.28zm3.51-120.92v120.92h-3.51v-120.92h3.51zm2.01-5.52v3.51h-0.1l-0.1 0.01-0.1 0.01-0.1 0.02-0.1 0.02-0.1 0.03-0.09 0.03-0.09 0.03-0.09 0.04-0.09 0.05-0.09 0.05-0.08 0.05-0.08 0.06-0.08 0.06-0.08 0.07-0.07 0.07-0.07 0.07-0.07 0.08-0.06 0.08-0.06 0.08-0.05 0.08-0.05 0.08-0.05 0.09-0.04 0.09-0.03 0.09-0.03 0.09-0.03 0.09-0.02 0.1-0.02 0.1-0.01 0.1-0.01 0.1v0.1h-3.51l0.01-0.28 0.02-0.28 0.04-0.28 0.05-0.27 0.06-0.27 0.07-0.26 0.09-0.25 0.1-0.25 0.11-0.25 0.12-0.23 0.13-0.23 0.14-0.22 0.15-0.22 0.16-0.21 0.17-0.2 0.18-0.19 0.19-0.18 0.2-0.17 0.21-0.16 0.22-0.15 0.23-0.15 0.23-0.13 0.23-0.12 0.25-0.11 0.25-0.1 0.26-0.09 0.26-0.07 0.27-0.06 0.27-0.05 0.28-0.04 0.28-0.02 0.28-0.01z"/>
   <circle class="fil2 str0" cx="49.02" cy="12.2" r="4.71"/>
   <rect class="fil2 str1" x="10.55" y="11.41" width="16.02" height="4.24" rx="2.12" ry="2.12"/>
    <path class="fil1" d="m86.6 11.01h-18.58v-3.51h18.58v3.51zm3.95 0.44h-3.51v-0.02-0.02-0.02-0.02-0.02l-0.01-0.02-0.01-0.02v-0.01l-0.01-0.02-0.01-0.02-0.01-0.02-0.01-0.01-0.01-0.02-0.01-0.01-0.01-0.02-0.02-0.02-0.02-0.01-0.02-0.01-0.01-0.01-0.02-0.02-0.02-0.01-0.02-0.01-0.03-0.01-0.02-0.01-0.01-0.01-0.02-0.01-0.02-0.01h-0.02-0.02-0.02-0.02-0.02v-3.51h0.2l0.2 0.02 0.2 0.02 0.2 0.03 0.19 0.05 0.19 0.05 0.19 0.06 0.19 0.07 0.17 0.08 0.16 0.08 0.17 0.09 0.16 0.1 0.15 0.11 0.15 0.12 0.14 0.12 0.14 0.13 0.13 0.14 0.12 0.14 0.12 0.15 0.11 0.15 0.1 0.16 0.09 0.16 0.08 0.16 0.08 0.17 0.07 0.19 0.06 0.19 0.05 0.19 0.05 0.2 0.03 0.2 0.03 0.2 0.01 0.2 0.01 0.2zm-3.51 2v-2h3.51v2h-3.51zm-0.44 3.95v-3.51h0.02 0.02 0.02 0.02 0.02l0.02-0.01 0.02-0.01 0.01-0.01 0.02-0.01 0.03-0.01 0.02-0.01 0.02-0.01 0.02-0.02 0.01-0.01 0.02-0.01 0.02-0.01 0.02-0.02 0.01-0.02 0.01-0.01 0.01-0.02 0.01-0.01 0.01-0.02 0.01-0.02 0.01-0.02v-0.01l0.01-0.02 0.01-0.02v-0.02-0.02-0.02-0.02-0.02h3.51l-0.01 0.2-0.01 0.2-0.03 0.2-0.03 0.2-0.05 0.2-0.05 0.19-0.06 0.19-0.07 0.19-0.08 0.17-0.08 0.16-0.09 0.16-0.1 0.16-0.11 0.15-0.12 0.15-0.12 0.14-0.13 0.14-0.14 0.13-0.14 0.12-0.15 0.12-0.15 0.11-0.16 0.1-0.17 0.09-0.16 0.08-0.17 0.08-0.19 0.07-0.19 0.06-0.19 0.05-0.19 0.05-0.2 0.03-0.2 0.02-0.2 0.02h-0.2zm-18.58-3.51h18.58v3.51h-18.58v-3.51zm-3.95-0.44h3.51v0.02 0.02 0.02 0.02 0.02l0.01 0.02 0.01 0.02v0.01l0.01 0.02 0.01 0.02 0.01 0.02 0.01 0.01 0.01 0.02 0.01 0.01 0.01 0.02 0.02 0.02 0.02 0.01 0.02 0.01 0.01 0.01 0.02 0.02 0.02 0.01 0.02 0.01 0.03 0.01 0.02 0.01 0.01 0.01 0.02 0.01 0.02 0.01h0.02 0.02 0.02 0.02 0.02v3.51h-0.2l-0.2-0.02-0.2-0.02-0.2-0.03-0.19-0.05-0.19-0.05-0.19-0.06-0.19-0.07-0.17-0.08-0.16-0.08-0.17-0.09-0.16-0.1-0.15-0.11-0.15-0.12-0.14-0.12-0.14-0.13-0.13-0.14-0.12-0.14-0.12-0.15-0.11-0.15-0.1-0.16-0.09-0.16-0.08-0.16-0.08-0.17-0.07-0.19-0.06-0.19-0.05-0.19-0.05-0.2-0.03-0.2-0.03-0.2-0.01-0.2-0.01-0.2zm3.51-2v2h-3.51v-2h3.51zm0.44-3.95v3.51h-0.02-0.02-0.02-0.02-0.02l-0.02 0.01-0.02 0.01-0.01 0.01-0.02 0.01-0.03 0.01-0.02 0.01-0.02 0.01-0.02 0.02-0.01 0.01-0.02 0.01-0.02 0.01-0.02 0.02-0.01 0.02-0.01 0.01-0.01 0.02-0.01 0.01-0.01 0.02-0.01 0.02-0.01 0.02v0.01l-0.01 0.02-0.01 0.02v0.02 0.02 0.02 0.02 0.02h-3.51l0.01-0.2 0.01-0.2 0.03-0.2 0.03-0.2 0.05-0.2 0.05-0.19 0.06-0.19 0.07-0.19 0.08-0.17 0.08-0.16 0.09-0.16 0.1-0.16 0.11-0.15 0.12-0.15 0.12-0.14 0.13-0.14 0.14-0.13 0.14-0.12 0.15-0.12 0.15-0.11 0.16-0.1 0.17-0.09 0.16-0.08 0.17-0.08 0.19-0.07 0.19-0.06 0.19-0.05 0.19-0.05 0.2-0.03 0.2-0.02 0.2-0.02h0.2z"/>
    <path class="fil1" d="m87.51 111.77h-20.16v-3.54h20.16v3.54zm4.25 0.72h-3.51v-0.04-0.04-0.03l-0.01-0.03-0.01-0.04-0.01-0.03-0.01-0.03-0.01-0.03-0.01-0.03-0.02-0.03-0.02-0.03-0.02-0.03-0.02-0.02-0.02-0.03-0.02-0.03-0.03-0.03-0.03-0.03-0.03-0.02-0.03-0.02-0.03-0.02-0.03-0.02-0.03-0.02-0.03-0.02-0.03-0.01-0.03-0.01-0.03-0.01-0.04-0.01-0.04-0.01-0.03-0.01h-0.04-0.04-0.04v-3.54l0.21 0.01 0.21 0.02 0.21 0.03 0.21 0.04 0.2 0.05 0.2 0.06 0.2 0.07 0.19 0.08 0.19 0.09 0.18 0.09 0.17 0.1 0.17 0.11 0.17 0.12 0.16 0.13 0.15 0.13 0.14 0.14 0.14 0.14 0.14 0.16 0.13 0.16 0.12 0.17 0.11 0.17 0.1 0.17 0.09 0.18 0.09 0.19 0.08 0.19 0.07 0.2 0.06 0.2 0.05 0.21 0.04 0.21 0.03 0.22 0.02 0.22 0.01 0.22zm-3.51 9.62v-9.62h3.51v9.62h-3.51zm-0.74 4.27v-3.54h0.04 0.04 0.04l0.03-0.01 0.04-0.01 0.04-0.01 0.03-0.01 0.03-0.01 0.03-0.01 0.03-0.02 0.03-0.02 0.03-0.02 0.03-0.02 0.03-0.02 0.03-0.02 0.03-0.03 0.03-0.03 0.02-0.03 0.02-0.03 0.02-0.02 0.02-0.03 0.02-0.03 0.02-0.03 0.01-0.03 0.01-0.03 0.01-0.03 0.01-0.03 0.01-0.04 0.01-0.03v-0.03-0.04-0.04h3.51l-0.01 0.22-0.02 0.22-0.03 0.22-0.04 0.21-0.05 0.21-0.06 0.2-0.07 0.2-0.08 0.19-0.09 0.19-0.09 0.18-0.1 0.17-0.11 0.17-0.12 0.17-0.13 0.16-0.14 0.16-0.14 0.14-0.14 0.14-0.15 0.13-0.16 0.13-0.17 0.12-0.17 0.11-0.17 0.1-0.18 0.09-0.19 0.09-0.19 0.08-0.2 0.07-0.2 0.06-0.2 0.05-0.21 0.04-0.21 0.03-0.21 0.02-0.21 0.01zm-20.16-3.54h20.16v3.54h-20.16v-3.54zm-4.25-0.72h3.51v0.04 0.04 0.03l0.01 0.03 0.01 0.04 0.01 0.03 0.01 0.03 0.01 0.03 0.01 0.03 0.02 0.03 0.02 0.03 0.02 0.03 0.02 0.02 0.02 0.03 0.02 0.03 0.03 0.03 0.03 0.03 0.03 0.02 0.03 0.02 0.03 0.02 0.03 0.02 0.03 0.02 0.03 0.02 0.03 0.01 0.03 0.01 0.03 0.01 0.04 0.01 0.04 0.01 0.03 0.01h0.04 0.04 0.04v3.54l-0.21-0.01-0.21-0.02-0.21-0.03-0.21-0.04-0.2-0.05-0.2-0.06-0.2-0.07-0.19-0.08-0.19-0.09-0.18-0.09-0.17-0.1-0.17-0.11-0.17-0.12-0.16-0.13-0.15-0.13-0.14-0.14-0.14-0.14-0.14-0.16-0.13-0.16-0.12-0.17-0.11-0.17-0.1-0.17-0.09-0.18-0.09-0.19-0.08-0.19-0.07-0.2-0.06-0.2-0.05-0.21-0.04-0.21-0.03-0.22-0.02-0.22-0.01-0.22zm3.51-9.62v9.62h-3.51v-9.62h3.51zm0.74-4.27v3.54h-0.04-0.04-0.04l-0.03 0.01-0.04 0.01-0.04 0.01-0.03 0.01-0.03 0.01-0.03 0.01-0.03 0.02-0.03 0.02-0.03 0.02-0.03 0.02-0.03 0.02-0.03 0.02-0.03 0.03-0.03 0.03-0.02 0.03-0.02 0.03-0.02 0.02-0.02 0.03-0.02 0.03-0.02 0.03-0.01 0.03-0.01 0.03-0.01 0.03-0.01 0.03-0.01 0.04-0.01 0.03v0.03 0.04 0.04h-3.51l0.01-0.22 0.02-0.22 0.03-0.22 0.04-0.21 0.05-0.21 0.06-0.2 0.07-0.2 0.08-0.19 0.09-0.19 0.09-0.18 0.1-0.17 0.11-0.17 0.12-0.17 0.13-0.16 0.14-0.16 0.14-0.14 0.14-0.14 0.15-0.13 0.16-0.13 0.17-0.12 0.17-0.11 0.17-0.1 0.18-0.09 0.19-0.09 0.19-0.08 0.2-0.07 0.2-0.06 0.2-0.05 0.21-0.04 0.21-0.03 0.21-0.02 0.21-0.01z"/>
   <circle class="fil3 str2" cx="49.02" cy="63.23" r="35.18"/>
   <path class="fil0" d="m49.01 36.25c13.15 0 24.1 9.4 26.5 21.85h-8.33c-2.29 0-4.16 1.87-4.16 4.16v5.76c0 2.29 1.87 4.16 4.16 4.16h7.3c-3.69 10.51-13.7 18.04-25.47 18.04-14.91 0-26.99-12.08-26.99-26.99s12.08-26.99 26.99-26.99z"/>
   <g clip-path="url(#a)">
     <path class="fil4" d="m-0.75 71.51c8.17 0.62 11.32-3.89 18.21-3.85 6.9 0.03 7.54 3.8 16.91 4.18 9.38 0.37 8.72-3.93 16.17-4.15s8.87 4.37 18.44 3.74 12.21-7.29 18.28-6.18-4.7 36.99-41.85 36.4-46.16-30.14-46.16-30.14z"/>
   </g>
   <path class="fil2 str3" d="m49.01 36.25c13.15 0 24.1 9.4 26.5 21.85h-8.33c-2.29 0-4.16 1.87-4.16 4.16v5.76c0 2.29 1.87 4.16 4.16 4.16h7.3c-3.69 10.51-13.7 18.04-25.47 18.04-14.91 0-26.99-12.08-26.99-26.99s12.08-26.99 26.99-26.99z"/>
</svg>
